{
    "mappings" : {
      "logentry" : {
        "properties" : {
	   "client_addr": {
		   "type": "ip"
	   },
	   "actor": {
		   "type": "text"
	   },
	   "theme": {
		   "type": "text"
	   },
	   "date": {
		   "type": "date"
	   }
	}
      }
    }
}
